<svg width="17" height="17" viewBox="0 0 17 17" fill="none" xmlns="http://www.w3.org/2000/svg">
<g opacity="0.5">
<path fill-rule="evenodd" clipRule="evenodd" d="M9.69341 12.5352C12.4232 11.3751 13.6957 8.2216 12.5356 5.49177C11.3754 2.76193 8.22196 1.48945 5.49212 2.6496C2.76229 3.80975 1.48981 6.96321 2.64996 9.69305C3.81011 12.4229 6.96357 13.6954 9.69341 12.5352Z" stroke="black" strokeWidth="1.2" strokeLinecap="round" strokeLinejoin="round"/>
<path d="M11.3901 11.3896L15.5555 15.5556" stroke="black" strokeWidth="1.2" strokeLinecap="round" strokeLinejoin="round"/>
</g>
</svg>
